{
  "title": "Документация по REST API сервиса Me to You",
  "url": "http://me2you.pro/api",
  "name": "Me to You API",
  "version": "1.0.0",
  "description": "Документация по REST API сервиса Me to You",
  "sampleUrl": false,
  "apidoc": "0.2.0",
  "generator": {
    "name": "apidoc",
    "time": "2016-04-17T07:50:39.940Z",
    "url": "http://apidocjs.com",
    "version": "0.15.1"
  }
}
